{
"01":[
{"item":501},
{"item":502},
{"item":503},
{"item":504},
{"item":505},
{"item":506},
{"item":507},
{"item":508},
{"item":509},
{"item":510},
{"item":511},
{"item":512},
{"item":513},
{"item":514},
{"item":515},
{"item":516},
{"item":517},
{"item":518},
{"item":519},
{"item":520},
{"item":521},
{"item":522},
{"item":523},
{"item":524},
{"item":525},
{"item":526},
{"item":527},
{"item":528},
{"item":529},
{"item":530},
{"item":531},
{"item":532},
{"item":533},
{"item":534},
{"item":535},
{"item":536},
{"item":537},
{"item":538},
{"item":539},
{"item":540}
]
}